VERSION		EQU	1
REVISION	EQU	13
DATE	MACRO
		dc.b	'24.06.2024'
	ENDM
VERS	MACRO
		dc.b	'maprom 1.13'
	ENDM
VSTRING	MACRO
		dc.b	'maprom 1.13 (24.06.2024)',13,10,0
	ENDM
VERSTAG	MACRO
		dc.b	0,'$VER: maprom 1.13 (24.06.2024)',0
	ENDM
